…
``` r
# which items are most ordered 
most_ordered_items =
  instacart %>% 
  group_by(product_name, aisle) %>% 
  summarize(n = n())

# which aisles are the most items ordered from
instacart %>% 
  group_by(aisle)  %>% 
  summarize(n = n())  %>% 
  arrange(desc(n))
```

    ## # A tibble: 134 x 2
    ##    aisle                              n
    ##    <chr>                          <int>
    ##  1 fresh vegetables              150609
    ##  2 fresh fruits                  150473
    ##  3 packaged vegetables fruits     78493
    ##  4 yogurt                         55240
    ##  5 packaged cheese                41699
    ##  6 water seltzer sparkling water  36617
    ##  7 milk                           32644
    ##  8 chips pretzels                 31269
    ##  9 soy lactosefree                26240
    ## 10 bread                          23635
    ## # ... with 124 more rows
…
``` r
ny_noaa = mutate(ny_noaa, year = year(ny_noaa$date)) # new variable for year
ny_noaa = mutate(ny_noaa, month = month(ny_noaa$date)) # new variable for month
ny_noaa = mutate(ny_noaa, day = day(ny_noaa$date)) # new variable for day 

ny_noaa %>%
  mutate(tmax = as.numeric(tmax),
         tmin = as.numeric(tmin),
         prcp = prcp / 10,
         tmax = tmax * (9 / 5) + 32,
         tmin = tmax * (9 / 5) + 32)
```

    ## # A tibble: 2,595,176 x 10
    ##    id          date        prcp  snow  snwd  tmax  tmin  year month   day
    ##    <chr>       <date>     <dbl> <int> <int> <dbl> <dbl> <dbl> <dbl> <int>
    ##  1 US1NYAB0001 2007-11-01    NA    NA    NA    NA    NA  2007    11     1
    ##  2 US1NYAB0001 2007-11-02    NA    NA    NA    NA    NA  2007    11     2
    ##  3 US1NYAB0001 2007-11-03    NA    NA    NA    NA    NA  2007    11     3
    ##  4 US1NYAB0001 2007-11-04    NA    NA    NA    NA    NA  2007    11     4
    ##  5 US1NYAB0001 2007-11-05    NA    NA    NA    NA    NA  2007    11     5
    ##  6 US1NYAB0001 2007-11-06    NA    NA    NA    NA    NA  2007    11     6
    ##  7 US1NYAB0001 2007-11-07    NA    NA    NA    NA    NA  2007    11     7
    ##  8 US1NYAB0001 2007-11-08    NA    NA    NA    NA    NA  2007    11     8
    ##  9 US1NYAB0001 2007-11-09    NA    NA    NA    NA    NA  2007    11     9
    ## 10 US1NYAB0001 2007-11-10    NA    NA    NA    NA    NA  2007    11    10
    ## # ... with 2,595,166 more rows
…
    ## Warning: Removed 175017 rows containing missing values (geom_path).

<img src="p8105_hw3_nc2710_final_files/figure-markdown_github/Jan, July avg temp-1.png" width="95%" />

``` r
tmax_jan_jul_plot
```

    ## # A tibble: 437,441 x 11
    ## # Groups:   id, year [7,409]
    ##    id    date        prcp  snow  snwd  tmax  tmin  year month   day
    ##    <chr> <date>     <int> <int> <int> <dbl> <dbl> <dbl> <dbl> <int>
    ##  1 US1N… 2008-01-01     0     0   343    NA    NA  2008     1     1
    ##  2 US1N… 2008-01-02    86   109   445    NA    NA  2008     1     2
    ##  3 US1N… 2008-01-03     0     0   432    NA    NA  2008     1     3
    ##  4 US1N… 2008-01-04     0     0    NA    NA    NA  2008     1     4
    ##  5 US1N… 2008-01-05     0     0   305    NA    NA  2008     1     5
    ##  6 US1N… 2008-01-06     0     0   267    NA    NA  2008     1     6
    ##  7 US1N… 2008-01-07     0     0   191    NA    NA  2008     1     7
    ##  8 US1N… 2008-01-08     0     0    89    NA    NA  2008     1     8
    ##  9 US1N… 2008-01-09     0     0    38    NA    NA  2008     1     9
    ## 10 US1N… 2008-01-10     0     0     0    NA    NA  2008     1    10
    ## # ... with 437,431 more rows, and 1 more variable: avg_temp <dbl>
…
